<?xml version="1.0" encoding="UTF-8"?>
<svg xmlns="http://www.w3.org/2000/svg" xmlns:xlink="http://www.w3.org/1999/xlink" width="50pt" height="50pt" viewBox="0 0 50 50" version="1.1">
<g id="surface453739">
<path style="fill-rule:nonzero;fill:rgb(100%,100%,100%);fill-opacity:1;stroke-width:2;stroke-linecap:butt;stroke-linejoin:round;stroke:rgb(0%,0%,0%);stroke-opacity:1;stroke-miterlimit:10;" d="M 172.005435 25.796196 L 172.005435 42.997283 L -0.00543478 42.997283 L -0.00543478 25.796196 Z M 172.005435 77.399457 L 172.005435 94.600543 L -0.00543478 94.600543 L -0.00543478 77.399457 Z M 172.005435 129.002717 L 172.005435 146.203804 L -0.00543478 146.203804 L -0.00543478 129.002717 Z M 172.005435 129.002717 " transform="matrix(0.2875,0,0,0.2875,0.275,0.275)"/>
<path style=" stroke:none;fill-rule:nonzero;fill:rgb(100%,100%,100%);fill-opacity:1;" d="M 0.273438 7.691406 L 0.273438 12.636719 L 49.726562 12.636719 L 49.726562 7.691406 Z M 0.273438 22.527344 L 0.273438 27.472656 L 49.726562 27.472656 L 49.726562 22.527344 Z M 0.273438 37.363281 L 0.273438 42.308594 L 49.726562 42.308594 L 49.726562 37.363281 Z M 0.273438 37.363281 "/>
</g>
</svg>
